{
"pot": true,
"paddingX": 0,
"paddingY": 0,
"edgePadding": false,
"duplicatePadding": false,
"rotation": true,
"minWidth": 16,
"minHeight": 16,
"maxWidth": 256,
"maxHeight": 256,
"square": false,
"stripWhitespaceX": true,
"stripWhitespaceY": true,
"alphaThreshold": 0,
"filterMin": "Nearest",
"filterMag": "Nearest",
"wrapX": "ClampToEdge",
"wrapY": "ClampToEdge",
"format": "RGBA8888",
"alias": true,
"outputFormat": "png",
"jpegQuality": 0.9,
"ignoreBlankImages": true,
"fast": false,
"debug": false,
"silent": false,
"combineSubdirectories": false,
"ignore": false,
"flattenPaths": false,
"premultiplyAlpha": false,
"useIndexes": false,
"bleed": true,
"bleedIterations": 2,
"limitMemory": true,
"grid": false,
"scale": [ 1 ],
"scaleSuffix": [ "" ],
"scaleResampling": [ "bicubic" ],
"atlasExtension": ".atlas"
}